<?xml version="1.0" encoding="utf-8"?>
<!-- Generator: Adobe Illustrator 21.0.0, SVG Export Plug-In . SVG Version: 6.00 Build 0)  -->
<svg version="1.1" id="svg8" xmlns="http://www.w3.org/2000/svg" xmlns:xlink="http://www.w3.org/1999/xlink" x="0px" y="0px"
	 viewBox="0 0 1920 1080" style="enable-background:new 0 0 1920 1080;" xml:space="preserve">
<style type="text/css">
	.st0{fill:#F9F9F9;}
	.st1{fill:none;stroke:#C9C9C9;}
	.st2{opacity:0.2;}
	.st3{fill:#A2D4A5;}
	.st4{opacity:3.000000e-02;}
</style>
<path id="rect4518" class="st0" d="M0,0h1920v1080H0V0z"/>
<g id="g2414">
	<g>
		<path id="path1059_7_" class="st1" d="M960,540l-315.5-68.1"/>
		<path id="path1059-4_7_" class="st1" d="M960,540L626.3,678"/>
		<path id="path1059-4-8_7_" class="st1" d="M834.4,873.9L626.3,678"/>
		<path id="path1059-4-8-5_7_" class="st1" d="M596,956.8L626.3,678"/>
		<path id="path1059-4-8-5-3_7_" class="st1" d="M596,956.8l-266.7-38.4"/>
		<path id="path1059-4-8-5-3-0_7_" class="st1" d="M402,692.1l-72.7,226.3"/>
		<path id="path1059-4-8-5-3-0-9_7_" class="st1" d="M216.2,774.9l113.1,143.4"/>
		<path id="path1059-4-8-5-3-0-9-6_7_" class="st1" d="M143.4,977l185.9-58.6"/>
		<path id="path1059-4-8-5-3-0-3_7_" class="st1" d="M402,692.1L260.6,552.7"/>
		<path id="path1059-4-8-5-3-0-3-4_7_" class="st1" d="M402,692.1l146.3-141.4"/>
		<path id="path1059-4-8-5-3-0-3-4-1_7_" class="st1" d="M540,357.1l8.3,193.6"/>
		<path id="path1059-4-8-5-3-0-3-4-8_7_" class="st1" d="M402,692.1L210.1,352.7"/>
		<path id="path1059-4-8-5-3-0-90_7_" class="st1" d="M402,692.1L596,956.8"/>
		<path id="path1059-4-8-5-3-0-90-4_7_" class="st1" d="M402,692.1L626.3,678"/>
		<path id="path1059-4-8-5-3-0-3-4-1-4_7_" class="st1" d="M309.1,199.1l239.2,351.6"/>
		<path id="path1059-4-8-5-3-0-3-4-1-4-9_7_" class="st1" d="M309.1,199.1l216.2-99"/>
		<path id="path1059-4-8-5-3-0-3-4-1-4-9-9_7_" class="st1" d="M680.8,229.5L525.3,100.2"/>
		<path id="path1059-4-8-5-3-0-3-4-1-4-9-9-4_7_" class="st1" d="M680.8,229.5l202-80.8"/>
		<path id="path1059-4-8-5-3-0-3-4-1-4-9-9-4-4_7_" class="st1" d="M1028.3,340.6L882.9,148.6"/>
		<path id="path1059-4-8-5-3-0-3-4-1-4-9-9-4-4-8_7_" class="st1" d="M1028.3,340.6l309.1-80.8"/>
		<path id="path1059-4-8-5-3-0-3-4-1-4-9-9-4-4-8-1_7_" class="st1" d="M1169.8,146.6l167.7,113.1"/>
		<path id="path1059-4-8-5-3-0-3-4-1-4-9-9-4-4-8-1-6_7_" class="st1" d="M1499.1,118.3l-161.6,141.4"/>
		<path id="path1059-4-8-5-3-0-3-4-1-4-9-9-4-4-8-1-6-5_7_" class="st1" d="M1596,338.5l-258.6-78.8"/>
		<path id="path1059-4-8-5-3-0-3-4-1-4-9-9-4-4-8-1-6-5-0_7_" class="st1" d="M1293,516.3l44.4-256.6"/>
		<path id="path1059-4-8-5-3-0-3-4-1-4-9-9-4-4-8-1-6-5-0-1_7_" class="st1" d="M1293,516.3l222.2,90.9"/>
		<path id="path1059-4-8-5-3-0-3-4-1-4-9-9-4-4-8-1-6-5-0-1-5_7_" class="st1" d="M1216.2,738.6l299-131.3"/>
		<path id="path1059-4-8-5-3-0-3-4-1-4-9-9-4-4-8-1-6-5-0-1-5-8_7_" class="st1" d="M1434.4,912.3l80.8-305.1"/>
		<path id="path1059-4-8-5-3-0-3-4-1-4-9-9-4-4-8-1-6-5-0-1-5-6_7_" class="st1" d="M1216.2,738.6l-266.7,8.1"/>
		<path id="path1059-4-8-5-3-0-3-4-1-4-9-9-4-4-8-1-6-5-0-1-5-6-0_7_" class="st1" d="M1091,934.5L949.5,746.6"/>
		<path id="path1059-4-8-5-3-0-3-4-1-4-9-9-4-4-8-1-6-5-0-1-5-6-0-1_7_" class="st1" d="M834.4,873.9l115.2-127.3"/>
		<path id="path1059-4-8-5-3-0-3-4-1-4-1_7_" class="st1" d="M309.1,199.1L258.6,49.6"/>
		<path id="path1059-4-8-5-3-0-3-4-1-4-1-4_7_" class="st1" d="M309.1,199.1l-185.9-56.6"/>
		<path id="path1059-4-8-5-3-0-3-4-8-5_7_" class="st1" d="M123.2,518.4l86.9-165.7"/>
		<path id="path1059-4-8-5-3-0-3-4-8-5-1_7_" class="st1" d="M60.6,366.8l149.5-14.1"/>
		<path id="path1059-4-8-5-3-0-3-0_7_" class="st1" d="M402,692.1l-222.2-46.5"/>
		<path id="path1059-4-8-5-3-0-3-4-1-4-9-9-4-4-8-1-6-5-0-9_7_" class="st1" d="M1293,516.3l-264.7-175.8"/>
		<path id="path1059-4-8-5-3-0-3-4-1-4-9-9-4-4-8-1-6-5-0-9-0_7_" class="st1" d="M1293,516.3l-76.8,222.2"/>
		<path id="path1059-4-8-5-3-0-3-4-1-4-9-9-4-4-8-1-6-5-0-9-0-0_7_" class="st1" d="M1200,977.1l16.2-238.6"/>
		<path id="path1059-4-8-5-3-0-3-4-1-4-9-9-4-4-8-1-6-5-0-9-0-0-5_7_" class="st1" d="M1345.7,997.1l-129.5-258.6"/>
		<path id="path1059-4-8-5-3-0-3-4-1-4-9-9-4-4-8-1-6-5-0-1-6_7_" class="st1" d="M1697.1,505.7l-181.9,101.5"/>
		<path id="path1059-4-8-5-3-0-3-4-1-4-9-9-4-4-8-1-6-5-0-1-6-0_7_" class="st1" d="M1717.1,714.3l-201.9-107"/>
		<path id="path1059-4-8-5-3-0-3-4-1-6_7_" class="st1" d="M540,357.1l104.5,114.7"/>
		<path id="path1059-4-8-5-3-0-3-4-1-6-4_7_" class="st1" d="M540,357.1l140.8-127.7"/>
		<path id="path1059-4-8-5-3-0-3-4-1-6-4-5_7_" class="st1" d="M540,357.1l-230.9-158"/>
		<path id="path1059-4-8-5-3-0-3-4-1-6-7_7_" class="st1" d="M882.9,148.6L644.5,471.9"/>
		<path id="path1059-4-8-5-3-0-3-4-1-6-7-3_7_" class="st1" d="M680.8,229.5l-36.4,242.4"/>
		<path id="path1059-4-8-5-3-0-3-4-1-6-7-3-2_7_" class="st1" d="M1028.3,340.6L644.5,471.9"/>
		<path id="path1059-4-8-5-3-0-3-4-1-4-9-9-4-4-8-1-6-5-0-1-5-6-8_7_" class="st1" d="M960,540l-10.5,206.6"/>
		<path id="path1059-4-8-5-3-0-3-4-1-4-9-9-4-4-8-1-6-5-0-9-0-5_7_" class="st1" d="M1293,516.3L960,540"/>
		<path id="path1059-4-8-5-3-0-3-4-1-6-7-3-2-9_7_" class="st1" d="M1028.3,340.6L960,540"/>
		<path id="path1059-4-8-5-3-0-3-4-1-4-9-9-4-4-8-1-6-5-7_7_" class="st1" d="M1596,338.5l111.1-129.3"/>
		<path id="path1059-4-8-5-3-0-3-4-1-4-9-9-4-4-8-1-6-5-7-4_7_" class="st1" d="M1717.1,60l-10,149.2"/>
		<path id="path1059-4-8-5-3-0-3-4-1-4-9-9-4-4-8-1-6-5-7-4-2_7_" class="st1" d="M1858.6,184.3l-151.4,25"/>
		<path id="path1059-4-8-5-3-0-3-4-1-4-9-9-4-4-8-1-6-5-7-4-2-7_7_" class="st1" d="M1780,401.4l-72.8-192.2"/>
		<path id="path1059-4-8-5-3-0-3-4-1-4-9-9-4-4-8-1-6-5-7-5_7_" class="st1" d="M1596,338.5l-100.3,107.2"/>
		<path id="path1059-4-8-5-3-0-3-4-1-4-9-9-4-4-8-1-6-5-7-5-5_7_" class="st1" d="M1515.2,607.2l-19.5-161.5"/>
		<path id="path1059-4-8-5-3-0-3-4-1-4-9-9-4-4-8-1-6-5-7-5-5-7_7_" class="st1" d="M1293,516.3l202.7-70.6"/>
		<path id="path1059-4-8-5-3-0-3-4-1-4-9-9-4-4-8-1-6-5-7-5-5-7-1_7_" class="st1" d="M1337.4,259.8l158.3,186"/>
		<path id="path1059-4-8-5-3-0-3-4-1-4-9-9-4-4-8-1-6-5-0-1-5-8-3_7_" class="st1" d="M1434.4,912.3l226.3-26.3"/>
		<path id="path1059-4-8-5-3-0-3-4-1-4-9-9-4-4-8-1-6-5-0-1-5-8-3-7_7_" class="st1" d="M1434.4,912.3l-218.2-173.7"/>
		<path id="path1059-4-8-5-3-0-3-4-1-4-9-9-4-4-8-1-6-5-0-1-5-8-3-78_7_" class="st1" d="M1717.1,714.3l-56.5,171.8"/>
		<path id="path1059-4-8-5-3-0-3-4-1-4-9-9-4-4-8-1-6-5-0-1-5-8-3-78-5_7_" class="st1" d="M1582.9,1037.1l77.8-151.1"/>
		<path id="path1059-4-8-5-3-0-3-4-1-4-9-9-4-4-8-1-6-5-0-1-5-8-3-78-5-6_7_" class="st1" d="M1772.9,1020l-112.2-133.9"/>
		<path id="path1059-4-8-5-3-0-3-4-1-4-9-9-4-4-8-1-6-5-0-1-5-8-3-78-5-6-5_7_" class="st1" d="M1824.3,827.1l-163.6,58.9"/>
		<path id="path1059-4-8-5-3-0-3-4-1-4-9-9-4-46_7_" class="st1" d="M745.7,42.9l137.2,105.8"/>
		<path id="path1059-4-8-5-3-0-3-4-1-4-9-9-4-46-1_7_" class="st1" d="M1025.3,49.9l-142.4,98.7"/>
		<path id="path1059-4-8-8_7_" class="st1" d="M834.4,873.9l-77.8,130.3"/>
		<path id="path1059-4-8-8-1_7_" class="st1" d="M834.4,873.9l133.3,143.4"/>
		<path id="path1059-4-8-5-3-0-3-4-1-4-9-9-4-4-8-1-6-5-0-1-5-6-0-1-5_7_" class="st1" d="M626.3,678l323.2,68.7"/>
		<path id="path1059-4-2_7_" class="st1" d="M548.3,550.7l78,127.2"/>
		<path id="path1059-4-2-5_7_" class="st1" d="M644.5,471.9L626.3,678"/>
	</g>
</g>
<g class="st2">
	<image style="overflow:visible;" width="1891" height="1088" xlink:href="AB8E42B2.png"  transform="matrix(1 0 0 1 20 1)">
	</image>
</g>
<g>
	<path id="path858" class="st3" d="M560,357.1c0,11-9,20-20,20c0,0,0,0,0,0c-11,0-20-9-20-20v0c0-11,9-20,20-20
		C551,337.1,560,346.1,560,357.1z"/>
	<path id="circle860" class="st3" d="M558.2,550.7c0,5.5-4.4,9.9-9.9,9.9l0,0c-5.5,0-9.9-4.4-9.9-9.9l0,0c0-5.5,4.4-9.9,9.9-9.9l0,0
		C553.8,540.8,558.2,545.3,558.2,550.7L558.2,550.7z"/>
	<path id="circle860-3" class="st3" d="M654.4,471.9c0,5.5-4.4,9.9-9.9,9.9l0,0c-5.5,0-9.9-4.4-9.9-9.9l0,0c0-5.5,4.4-9.9,9.9-9.9
		l0,0C649.9,462,654.4,466.4,654.4,471.9L654.4,471.9z"/>
	<path id="path858-0" class="st3" d="M422,692.1c0,11-9,20-20,20h0c-11,0-20-9-20-20c0-11,9-20,20-20S422,681.1,422,692.1z"/>
	<path id="path858-6" class="st3" d="M854.4,873.9c0,11-9,20-20,20s-20-9-20-20c0-11,9-20,20-20S854.4,862.9,854.4,873.9
		C854.4,873.9,854.4,873.9,854.4,873.9z"/>
	<path id="path858-8" class="st3" d="M1236.2,738.6c0,11-9,20-20,20c-11,0-20-9-20-20s9-20,20-20
		C1227.3,718.6,1236.2,727.5,1236.2,738.6z"/>
	<path id="path858-5" class="st3" d="M1357.4,259.8c0,11-9,20-20,20c-11,0-20-9-20-20c0-11,9-20,20-20
		C1348.5,239.8,1357.4,248.7,1357.4,259.8z"/>
	<path id="path858-69" class="st3" d="M902.9,148.6c0,11-9,20-20,20s-20-9-20-20v0c0-11,9-20,20-20l0,0
		C893.9,128.6,902.9,137.6,902.9,148.6z"/>
	<path id="path858-2" class="st3" d="M1048.3,340.6c0,11-9,20-20,20c-11,0-20-9-20-20c0-11,9-20,20-20
		C1039.4,320.6,1048.3,329.5,1048.3,340.6z"/>
	<path id="path858-51" class="st3" d="M1535.2,607.2c0,11-9,20-20,20s-20-9-20-20c0-11,9-20,20-20S1535.2,596.2,1535.2,607.2z"/>
	<path id="circle860-6" class="st3" d="M226.1,774.9c0,5.5-4.4,9.9-9.9,9.9h0c-5.5,0-9.9-4.4-9.9-9.9l0,0c0-5.5,4.4-9.9,9.9-9.9h0
		C221.6,765,226.1,769.5,226.1,774.9L226.1,774.9z"/>
	<path id="circle860-0" class="st3" d="M270.5,552.7c0,5.5-4.4,9.9-9.9,9.9l0,0c-5.5,0-9.9-4.4-9.9-9.9l0,0c0-5.5,4.4-9.9,9.9-9.9
		l0,0C266.1,542.8,270.5,547.2,270.5,552.7L270.5,552.7z"/>
	<path id="circle860-4" class="st3" d="M339.2,918.4c0,5.5-4.4,9.9-9.9,9.9l0,0c-5.5,0-9.9-4.4-9.9-9.9l0,0c0-5.5,4.4-9.9,9.9-9.9
		l0,0C334.8,908.5,339.2,912.9,339.2,918.4L339.2,918.4z"/>
	<path id="circle860-31" class="st3" d="M153.3,977c0,5.5-4.4,9.9-9.9,9.9c0,0,0,0,0,0c-5.5,0-9.9-4.4-9.9-9.9c0,0,0,0,0,0
		c0-5.5,4.4-9.9,9.9-9.9S153.3,971.5,153.3,977z"/>
	<path id="path858-55" class="st3" d="M329.1,199.1c0,11-9,20-20,20c-11,0-20-9-20-20c0-11,9-20,20-20
		C320.2,179.1,329.1,188.1,329.1,199.1L329.1,199.1z"/>
	<path id="circle860-33" class="st3" d="M220,352.7c0,5.5-4.4,9.9-9.9,9.9h0c-5.5,0-9.9-4.4-9.9-9.9l0,0c0-5.5,4.4-9.9,9.9-9.9h0
		C215.6,342.8,220,347.2,220,352.7L220,352.7z"/>
	<path id="circle860-65" class="st3" d="M535.2,100.2c0,5.5-4.4,9.9-9.9,9.9l0,0c-5.5,0-9.9-4.4-9.9-9.9v0c0-5.5,4.4-9.9,9.9-9.9
		l0,0C530.7,90.3,535.2,94.7,535.2,100.2L535.2,100.2z"/>
	<path id="circle860-49" class="st3" d="M690.7,229.5c0,5.5-4.4,9.9-9.9,9.9l0,0c-5.5,0-9.9-4.4-9.9-9.9l0,0c0-5.5,4.4-9.9,9.9-9.9
		l0,0C686.3,219.6,690.7,224,690.7,229.5L690.7,229.5z"/>
	<path id="circle860-38" class="st3" d="M636.2,678c0,5.5-4.4,9.9-9.9,9.9l0,0c-5.5,0-9.9-4.4-9.9-9.9l0,0c0-5.5,4.4-9.9,9.9-9.9
		l0,0C631.8,668.1,636.2,672.5,636.2,678L636.2,678z"/>
	<path id="circle860-5" class="st3" d="M605.9,956.8c0,5.5-4.4,9.9-9.9,9.9c-5.5,0-9.9-4.4-9.9-9.9s4.4-9.9,9.9-9.9
		C601.5,946.9,605.9,951.3,605.9,956.8z"/>
	<path id="circle860-8" class="st3" d="M1100.9,934.5c0,5.5-4.4,9.9-9.9,9.9c-5.5,0-9.9-4.4-9.9-9.9c0-5.5,4.4-9.9,9.9-9.9
		C1096.4,924.6,1100.9,929.1,1100.9,934.5z"/>
	<path id="circle860-60" class="st3" d="M959.4,746.6c0,5.5-4.4,9.9-9.9,9.9l0,0c-5.5,0-9.9-4.4-9.9-9.9l0,0c0-5.5,4.4-9.9,9.9-9.9
		l0,0C955,736.8,959.4,741.2,959.4,746.6L959.4,746.6z"/>
	<path id="circle860-7" class="st3" d="M1444.3,912.3c0,5.5-4.4,9.9-9.9,9.9c-5.5,0-9.9-4.4-9.9-9.9v0c0-5.5,4.4-9.9,9.9-9.9
		c0,0,0,0,0,0C1439.9,902.4,1444.3,906.8,1444.3,912.3z"/>
	<path id="circle860-9" class="st3" d="M1302.9,516.3c0,5.5-4.4,9.9-9.9,9.9s-9.9-4.4-9.9-9.9c0-5.5,4.4-9.9,9.9-9.9
		S1302.9,510.9,1302.9,516.3z"/>
	<path id="circle860-57" class="st3" d="M1605.9,338.5c0,5.5-4.4,9.9-9.9,9.9c-5.5,0-9.9-4.4-9.9-9.9c0-5.5,4.4-9.9,9.9-9.9
		C1601.5,328.6,1605.9,333.1,1605.9,338.5z"/>
	<path id="circle860-63" class="st3" d="M1509,118.3c0,5.5-4.4,9.9-9.9,9.9c-5.5,0-9.9-4.4-9.9-9.9c0-5.5,4.4-9.9,9.9-9.9
		C1504.5,108.4,1509,112.9,1509,118.3z"/>
	<path id="circle860-32" class="st3" d="M1179.7,146.6c0,5.5-4.4,9.9-9.9,9.9c-5.5,0-9.9-4.4-9.9-9.9s4.4-9.9,9.9-9.9
		C1175.2,136.7,1179.7,141.2,1179.7,146.6z"/>
	<path id="circle860-33-0" class="st3" d="M133.1,142.6c0,5.5-4.4,9.9-9.9,9.9h0c-5.5,0-9.9-4.4-9.9-9.9l0,0c0-5.5,4.4-9.9,9.9-9.9
		l0,0C128.7,132.7,133.1,137.1,133.1,142.6L133.1,142.6z"/>
	<path id="circle860-33-7" class="st3" d="M268.5,49.6c0,5.5-4.4,9.9-9.9,9.9l0,0c-5.5,0-9.9-4.4-9.9-9.9c0,0,0,0,0,0
		c0-5.5,4.4-9.9,9.9-9.9l0,0C264.1,39.7,268.5,44.2,268.5,49.6C268.5,49.6,268.5,49.6,268.5,49.6z"/>
	<path id="circle860-33-1" class="st3" d="M133.1,518.4c0,5.5-4.4,9.9-9.9,9.9h0c-5.5,0-9.9-4.4-9.9-9.9l0,0c0-5.5,4.4-9.9,9.9-9.9
		l0,0C128.7,508.5,133.1,512.9,133.1,518.4L133.1,518.4z"/>
	<path id="circle860-33-70" class="st3" d="M70.5,366.8c0,5.5-4.4,9.9-9.9,9.9c0,0,0,0,0,0c-5.5,0-9.9-4.4-9.9-9.9l0,0
		c0-5.5,4.4-9.9,9.9-9.9c0,0,0,0,0,0C66.1,356.9,70.5,361.4,70.5,366.8L70.5,366.8z"/>
	<path id="circle860-33-3" class="st3" d="M189.7,645.6c0,5.5-4.4,9.9-9.9,9.9h0c-5.5,0-9.9-4.4-9.9-9.9l0,0c0-5.5,4.4-9.9,9.9-9.9
		h0C185.3,635.7,189.7,640.2,189.7,645.6L189.7,645.6z"/>
	<path id="circle860-33-9" class="st3" d="M1707,505.7c0,5.5-4.4,9.9-9.9,9.9c-5.5,0-9.9-4.4-9.9-9.9v0c0-5.5,4.4-9.9,9.9-9.9
		c0,0,0,0,0,0C1702.6,495.8,1707,500.2,1707,505.7z"/>
	<path id="circle860-33-8" class="st3" d="M1727,714.3c0,5.5-4.4,9.9-9.9,9.9s-9.9-4.4-9.9-9.9s4.4-9.9,9.9-9.9
		S1727,708.8,1727,714.3z"/>
	<path id="circle860-33-6" class="st3" d="M1209.9,977.1c0,5.5-4.4,9.9-9.9,9.9c-5.5,0-9.9-4.4-9.9-9.9c0-5.5,4.4-9.9,9.9-9.9l0,0
		C1205.5,967.2,1209.9,971.7,1209.9,977.1L1209.9,977.1z"/>
	<path id="circle860-33-5" class="st3" d="M1355.6,997.1c0,5.5-4.4,9.9-9.9,9.9c-5.5,0-9.9-4.4-9.9-9.9s4.4-9.9,9.9-9.9
		C1351.2,987.2,1355.6,991.7,1355.6,997.1z"/>
	<path id="path858-5-7" class="st3" d="M1727.2,209.2c0,11-9,20-20,20c-11,0-20-9-20-20s9-20,20-20
		C1718.2,189.2,1727.2,198.2,1727.2,209.2z"/>
	<path id="path858-5-72" class="st3" d="M1680.7,886.1c0,11-9,20-20,20c-11,0-20-9-20-20c0-11,9-20,20-20
		C1671.7,866.1,1680.7,875,1680.7,886.1z"/>
	<path id="circle860-57-1" class="st3" d="M1727,60c0,5.5-4.4,9.9-9.9,9.9c-5.5,0-9.9-4.4-9.9-9.9s4.4-9.9,9.9-9.9
		C1722.6,50.1,1727,54.5,1727,60z"/>
	<path id="circle860-57-3" class="st3" d="M1868.5,184.3c0,5.5-4.4,9.9-9.9,9.9c-5.5,0-9.9-4.4-9.9-9.9s4.4-9.9,9.9-9.9
		C1864,174.4,1868.5,178.8,1868.5,184.3z"/>
	<path id="circle860-57-14" class="st3" d="M1834.2,827.1c0,5.5-4.4,9.9-9.9,9.9s-9.9-4.4-9.9-9.9c0-5.5,4.4-9.9,9.9-9.9
		S1834.2,821.7,1834.2,827.1z"/>
	<path id="circle860-57-2" class="st3" d="M1592.8,1037.1c0,5.5-4.4,9.9-9.9,9.9c-5.5,0-9.9-4.4-9.9-9.9c0-5.5,4.4-9.9,9.9-9.9l0,0
		C1588.3,1027.2,1592.8,1031.7,1592.8,1037.1L1592.8,1037.1z"/>
	<path id="circle860-57-9" class="st3" d="M1782.8,1020c0,5.5-4.4,9.9-9.9,9.9s-9.9-4.4-9.9-9.9c0-5.5,4.4-9.9,9.9-9.9
		S1782.8,1014.5,1782.8,1020z"/>
	<path id="circle860-57-0" class="st3" d="M1505.6,445.7c0,5.5-4.4,9.9-9.9,9.9c-5.5,0-9.9-4.4-9.9-9.9c0-5.5,4.4-9.9,9.9-9.9
		C1501.2,435.8,1505.6,440.2,1505.6,445.7z"/>
	<path id="circle860-57-91" class="st3" d="M1789.9,401.4c0,5.5-4.4,9.9-9.9,9.9c-5.5,0-9.9-4.4-9.9-9.9c0-5.5,4.4-9.9,9.9-9.9
		C1785.5,391.5,1789.9,396,1789.9,401.4z"/>
	<path id="circle860-5-7" class="st3" d="M766.5,1004.2c0,5.5-4.4,9.9-9.9,9.9c-5.5,0-9.9-4.4-9.9-9.9c0-5.5,4.4-9.9,9.9-9.9
		C762.1,994.3,766.5,998.8,766.5,1004.2z"/>
	<path id="circle860-5-4" class="st3" d="M977.6,1017.4c0,5.5-4.4,9.9-9.9,9.9c-5.5,0-9.9-4.4-9.9-9.9c0-5.5,4.4-9.9,9.9-9.9
		C973.2,1007.5,977.6,1011.9,977.6,1017.4z"/>
	<path id="circle860-5-1" class="st3" d="M755.6,42.9c0,5.5-4.4,9.9-9.9,9.9l0,0c-5.5,0-9.9-4.4-9.9-9.9c0,0,0,0,0,0
		c0-5.5,4.4-9.9,9.9-9.9l0,0C751.2,33,755.6,37.4,755.6,42.9C755.6,42.9,755.6,42.9,755.6,42.9z"/>
	<path id="circle860-5-2" class="st3" d="M1035.2,49.9c0,5.5-4.4,9.9-9.9,9.9c-5.5,0-9.9-4.4-9.9-9.9s4.4-9.9,9.9-9.9
		C1030.7,40,1035.2,44.4,1035.2,49.9z"/>
</g>
<g class="st4">
	<image style="overflow:visible;" width="1886" height="1152" xlink:href="AB8E42B7.png"  transform="matrix(1 0 0 1 70 -36)">
	</image>
</g>
<g class="st4">
	<image style="overflow:visible;" width="1886" height="1152" xlink:href="AB8E42B5.png"  transform="matrix(1 0 0 1 -40 -36)">
	</image>
</g>
</svg>
